{
  "content": [
    {
      "id": 3,
      "name": "Медицина",
      "appealProcessingTime": 30,
      "appealPendingProcessingTime": 30,
      "fileId": "d6d799e4-8530-480e-9bdc-a49e806aa7a0",
      "isShowAddress": true,
      "deleted": false,
      "other": false,
      "widgetOrder": 4,
      "notSelected": false,
      "showOnWidget": true,
      "hotFood": false,
      "minzdrav": false,
      "canBeChanged": true,
      "confidential": true
    },
    {
      "id": 163,
      "name": "Выплата на детей от 3 до 7 лет",
      "appealProcessingTime": 30,
      "appealPendingProcessingTime": 30,
      "fileId": "68979673-f62d-4f06-ad3e-3cbf983fc186",
      "isShowAddress": false,
      "deleted": false,
      "other": false,
      "widgetOrder": 9991,
      "notSelected": false,
      "showOnWidget": false,
      "hotFood": false,
      "minzdrav": false,
      "canBeChanged": true,
      "confidential": false
    },
    {
      "id": 139,
      "name": "Лесное хозяйство",
      "appealProcessingTime": 30,
      "appealPendingProcessingTime": 30,
      "fileId": "08e41998-3f0a-4390-a64e-31d0adaeccb2",
      "isShowAddress": true,
      "deleted": false,
      "other": false,
      "widgetOrder": 27,
      "notSelected": false,
      "showOnWidget": true,
      "hotFood": false,
      "minzdrav": false,
      "canBeChanged": true,
      "confidential": false
    },
    {
      "id": 140,
      "name": "Общественное питание",
      "appealProcessingTime": 30,
      "appealPendingProcessingTime": 30,
      "fileId": "f9df7e0f-0587-4e45-86b0-f59613176211",
      "isShowAddress": true,
      "deleted": false,
      "other": false,
      "widgetOrder": 28,
      "notSelected": false,
      "showOnWidget": true,
      "hotFood": false,
      "minzdrav": false,
      "canBeChanged": true,
      "confidential": false
    },
    {
      "id": 142,
      "name": "Погребение и похоронное дело",
      "appealProcessingTime": 30,
      "appealPendingProcessingTime": 30,
      "fileId": "e2452661-3dd4-486c-91f1-7d105518b580",
      "isShowAddress": true,
      "deleted": false,
      "other": false,
      "widgetOrder": 30,
      "notSelected": false,
      "showOnWidget": true,
      "hotFood": false,
      "minzdrav": false,
      "canBeChanged": true,
      "confidential": false
    },
    {
      "id": 143,
      "name": "Сельское хозяйство и охота",
      "appealProcessingTime": 30,
      "appealPendingProcessingTime": 30,
      "fileId": "bf52baee-98d9-4834-a9a4-3c9593f4eca1",
      "isShowAddress": true,
      "deleted": false,
      "other": false,
      "widgetOrder": 31,
      "notSelected": false,
      "showOnWidget": true,
      "hotFood": false,
      "minzdrav": false,
      "canBeChanged": true,
      "confidential": false
    },
    {
      "id": 148,
      "name": "Лекарства",
      "appealProcessingTime": 30,
      "appealPendingProcessingTime": 30,
      "fileId": "37329f45-6d8c-4648-a13a-18707aa6400b",
      "isShowAddress": false,
      "deleted": false,
      "other": false,
      "widgetOrder": 33,
      "notSelected": false,
      "showOnWidget": true,
      "hotFood": false,
      "minzdrav": true,
      "canBeChanged": false,
      "confidential": true
    },
    {
      "id": 149,
      "name": "Средства индивидуальной защиты",
      "appealProcessingTime": 30,
      "appealPendingProcessingTime": 30,
      "fileId": "c813bf87-fc6b-46d8-a98e-8472000689c5",
      "isShowAddress": false,
      "deleted": false,
      "other": false,
      "widgetOrder": 34,
      "notSelected": false,
      "showOnWidget": true,
      "hotFood": false,
      "minzdrav": true,
      "canBeChanged": false,
      "confidential": true
    },
    {
      "id": 114,
      "name": "Автомобильные дороги",
      "appealProcessingTime": 30,
      "appealPendingProcessingTime": 30,
      "fileId": "b4682cf5-9252-415b-afad-7f5ab924825f",
      "isShowAddress": true,
      "deleted": false,
      "other": false,
      "widgetOrder": 1,
      "notSelected": false,
      "showOnWidget": true,
      "hotFood": false,
      "minzdrav": false,
      "canBeChanged": true,
      "confidential": false
    },
    {
      "id": 125,
      "name": "Водоснабжение",
      "appealProcessingTime": 30,
      "appealPendingProcessingTime": 30,
      "fileId": "aa9f0d62-72f3-4f3d-9984-a33b06bf86d8",
      "isShowAddress": true,
      "deleted": false,
      "other": false,
      "widgetOrder": 13,
      "notSelected": false,
      "showOnWidget": true,
      "hotFood": false,
      "minzdrav": false,
      "canBeChanged": true,
      "confidential": false
    }
  ],
  "number": 0,
  "size": 10,
  "totalElements": 48,
  "pageable": {
    "sort": {
      "sorted": false,
      "unsorted": true,
      "empty": true
    },
    "offset": 0,
    "pageSize": 10,
    "pageNumber": 0,
    "paged": true,
    "unpaged": false
  },
  "last": false,
  "totalPages": 5,
  "sort": {
    "sorted": false,
    "unsorted": true,
    "empty": true
  },
  "first": true,
  "numberOfElements": 10,
  "empty": false
}