{
  "content": [
    {
      "id": 170,
      "name": "Пешеходная инфраструктура",
      "nameExtended": "Дворы и территории общего пользования - Пешеходная инфраструктура",
      "subject": {
        "id": 116,
        "name": "Дворы и территории общего пользования",
        "appealProcessingTime": 30,
        "appealPendingProcessingTime": 30,
        "fileId": "22fb253d-7650-4880-83ed-ada0aa086409",
        "isShowAddress": true,
        "deleted": false,
        "other": false,
        "widgetOrder": 3,
        "notSelected": false,
        "showOnWidget": true,
        "hotFood": false,
        "minzdrav": false,
        "canBeChanged": true,
        "confidential": false
      },
      "appealProcessingTime": 30,
      "appealPendingProcessingTime": 30,
      "fileId": "9aff7eef-5911-4af5-a975-3c1f0c1ffcef",
      "isShowAddress": true,
      "deleted": false,
      "notSelected": false,
      "showOnWidget": true,
      "canBeChanged": true,
      "fastTrack": false
    },
    {
      "id": 171,
      "name": "Размещение рекламы",
      "nameExtended": "Дворы и территории общего пользования - Размещение рекламы",
      "subject": {
        "id": 116,
        "name": "Дворы и территории общего пользования",
        "appealProcessingTime": 30,
        "appealPendingProcessingTime": 30,
        "fileId": "22fb253d-7650-4880-83ed-ada0aa086409",
        "isShowAddress": true,
        "deleted": false,
        "other": false,
        "widgetOrder": 3,
        "notSelected": false,
        "showOnWidget": true,
        "hotFood": false,
        "minzdrav": false,
        "canBeChanged": true,
        "confidential": false
      },
      "appealProcessingTime": 30,
      "appealPendingProcessingTime": 30,
      "fileId": "daf6a9ed-c90e-48a7-b6ba-7f50369341a1",
      "isShowAddress": true,
      "deleted": false,
      "notSelected": false,
      "showOnWidget": true,
      "canBeChanged": true,
      "fastTrack": false
    },
    {
      "id": 165,
      "name": "Вырубка деревьев",
      "nameExtended": "Дворы и территории общего пользования - Вырубка деревьев",
      "subject": {
        "id": 116,
        "name": "Дворы и территории общего пользования",
        "appealProcessingTime": 30,
        "appealPendingProcessingTime": 30,
        "fileId": "22fb253d-7650-4880-83ed-ada0aa086409",
        "isShowAddress": true,
        "deleted": false,
        "other": false,
        "widgetOrder": 3,
        "notSelected": false,
        "showOnWidget": true,
        "hotFood": false,
        "minzdrav": false,
        "canBeChanged": true,
        "confidential": false
      },
      "appealProcessingTime": 30,
      "appealPendingProcessingTime": 30,
      "fileId": "15810f5b-b12a-4b0f-b568-2ea7b6429f4c",
      "isShowAddress": true,
      "deleted": false,
      "notSelected": false,
      "showOnWidget": true,
      "canBeChanged": true,
      "fastTrack": false
    },
    {
      "id": 173,
      "name": "Уборка снега",
      "nameExtended": "Дворы и территории общего пользования - Уборка снега",
      "subject": {
        "id": 116,
        "name": "Дворы и территории общего пользования",
        "appealProcessingTime": 30,
        "appealPendingProcessingTime": 30,
        "fileId": "22fb253d-7650-4880-83ed-ada0aa086409",
        "isShowAddress": true,
        "deleted": false,
        "other": false,
        "widgetOrder": 3,
        "notSelected": false,
        "showOnWidget": true,
        "hotFood": false,
        "minzdrav": false,
        "canBeChanged": true,
        "confidential": false
      },
      "appealProcessingTime": 30,
      "appealPendingProcessingTime": 30,
      "fileId": "c21a1858-8d9c-4640-9fdb-5c3b436f020b",
      "isShowAddress": true,
      "deleted": false,
      "notSelected": false,
      "showOnWidget": true,
      "canBeChanged": true,
      "fastTrack": false
    },
    {
      "id": 169,
      "name": "Канализационные люки",
      "nameExtended": "Дворы и территории общего пользования - Канализационные люки",
      "subject": {
        "id": 116,
        "name": "Дворы и территории общего пользования",
        "appealProcessingTime": 30,
        "appealPendingProcessingTime": 30,
        "fileId": "22fb253d-7650-4880-83ed-ada0aa086409",
        "isShowAddress": true,
        "deleted": false,
        "other": false,
        "widgetOrder": 3,
        "notSelected": false,
        "showOnWidget": true,
        "hotFood": false,
        "minzdrav": false,
        "canBeChanged": true,
        "confidential": false
      },
      "appealProcessingTime": 30,
      "appealPendingProcessingTime": 30,
      "fileId": "0cf23d55-9ac4-4f07-ad05-0e51773a6e7a",
      "isShowAddress": true,
      "deleted": false,
      "notSelected": false,
      "showOnWidget": true,
      "canBeChanged": true,
      "fastTrack": false
    },
    {
      "id": 164,
      "name": "Брошенный автомобиль",
      "nameExtended": "Дворы и территории общего пользования - Брошенный автомобиль",
      "subject": {
        "id": 116,
        "name": "Дворы и территории общего пользования",
        "appealProcessingTime": 30,
        "appealPendingProcessingTime": 30,
        "fileId": "22fb253d-7650-4880-83ed-ada0aa086409",
        "isShowAddress": true,
        "deleted": false,
        "other": false,
        "widgetOrder": 3,
        "notSelected": false,
        "showOnWidget": true,
        "hotFood": false,
        "minzdrav": false,
        "canBeChanged": true,
        "confidential": false
      },
      "appealProcessingTime": 30,
      "appealPendingProcessingTime": 30,
      "fileId": "6dfec913-de46-412f-a4f1-817e4197c711",
      "isShowAddress": true,
      "deleted": false,
      "notSelected": false,
      "showOnWidget": true,
      "canBeChanged": true,
      "fastTrack": false
    },
    {
      "id": 168,
      "name": "Иное",
      "nameExtended": "Дворы и территории общего пользования - Иное",
      "subject": {
        "id": 116,
        "name": "Дворы и территории общего пользования",
        "appealProcessingTime": 30,
        "appealPendingProcessingTime": 30,
        "fileId": "22fb253d-7650-4880-83ed-ada0aa086409",
        "isShowAddress": true,
        "deleted": false,
        "other": false,
        "widgetOrder": 3,
        "notSelected": false,
        "showOnWidget": true,
        "hotFood": false,
        "minzdrav": false,
        "canBeChanged": true,
        "confidential": false
      },
      "appealProcessingTime": 30,
      "appealPendingProcessingTime": 30,
      "fileId": "3a6fdcea-7881-4fe2-baf3-740fd9eac65f",
      "isShowAddress": true,
      "deleted": false,
      "notSelected": false,
      "showOnWidget": true,
      "canBeChanged": true,
      "fastTrack": false
    },
    {
      "id": 172,
      "name": "Самострой",
      "nameExtended": "Дворы и территории общего пользования - Самострой",
      "subject": {
        "id": 116,
        "name": "Дворы и территории общего пользования",
        "appealProcessingTime": 30,
        "appealPendingProcessingTime": 30,
        "fileId": "22fb253d-7650-4880-83ed-ada0aa086409",
        "isShowAddress": true,
        "deleted": false,
        "other": false,
        "widgetOrder": 3,
        "notSelected": false,
        "showOnWidget": true,
        "hotFood": false,
        "minzdrav": false,
        "canBeChanged": true,
        "confidential": false
      },
      "appealProcessingTime": 30,
      "appealPendingProcessingTime": 30,
      "fileId": "cb997623-ea60-4a31-9f81-5eee07f3c97b",
      "isShowAddress": true,
      "deleted": false,
      "notSelected": false,
      "showOnWidget": true,
      "canBeChanged": true,
      "fastTrack": false
    },
    {
      "id": 175,
      "name": "Уличное освещение",
      "nameExtended": "Дворы и территории общего пользования - Уличное освещение",
      "subject": {
        "id": 116,
        "name": "Дворы и территории общего пользования",
        "appealProcessingTime": 30,
        "appealPendingProcessingTime": 30,
        "fileId": "22fb253d-7650-4880-83ed-ada0aa086409",
        "isShowAddress": true,
        "deleted": false,
        "other": false,
        "widgetOrder": 3,
        "notSelected": false,
        "showOnWidget": true,
        "hotFood": false,
        "minzdrav": false,
        "canBeChanged": true,
        "confidential": false
      },
      "appealProcessingTime": 30,
      "appealPendingProcessingTime": 30,
      "fileId": "16d5274f-77f2-45a5-8804-8ebb2795c1bd",
      "isShowAddress": true,
      "deleted": false,
      "notSelected": false,
      "showOnWidget": true,
      "canBeChanged": true,
      "fastTrack": false
    },
    {
      "id": 174,
      "name": "Угроза падения льда с крыш",
      "nameExtended": "Дворы и территории общего пользования - Угроза падения льда с крыш",
      "subject": {
        "id": 116,
        "name": "Дворы и территории общего пользования",
        "appealProcessingTime": 30,
        "appealPendingProcessingTime": 30,
        "fileId": "22fb253d-7650-4880-83ed-ada0aa086409",
        "isShowAddress": true,
        "deleted": false,
        "other": false,
        "widgetOrder": 3,
        "notSelected": false,
        "showOnWidget": true,
        "hotFood": false,
        "minzdrav": false,
        "canBeChanged": true,
        "confidential": false
      },
      "appealProcessingTime": 30,
      "appealPendingProcessingTime": 30,
      "fileId": "1265c85e-ef98-4c55-bd3f-d4345454f7e4",
      "isShowAddress": true,
      "deleted": false,
      "notSelected": false,
      "showOnWidget": true,
      "canBeChanged": true,
      "fastTrack": false
    }
  ],
  "number": 0,
  "size": 10,
  "totalElements": 13,
  "pageable": {
    "sort": {
      "sorted": false,
      "unsorted": true,
      "empty": true
    },
    "offset": 0,
    "pageSize": 10,
    "pageNumber": 0,
    "paged": true,
    "unpaged": false
  },
  "last": false,
  "totalPages": 2,
  "sort": {
    "sorted": false,
    "unsorted": true,
    "empty": true
  },
  "first": true,
  "numberOfElements": 10,
  "empty": false
}